<?xml version="1.0" encoding="UTF-8"?>
<!DOCTYPE svg
PUBLIC "-//W3C//DTD SVG 1.1//EN"
       "http://www.w3.org/Graphics/SVG/1.1/DTD/svg11.dtd">
<svg viewBox="16 -5 887 687" width="871px" height="692px" xmlns="http://www.w3.org/2000/svg" version="1.1">
   <line x1="255" y1="363" x2="245" y2="363" style="stroke:#333;stroke-width:1;"/>
   <line x1="106" y1="403" x2="96" y2="403" style="stroke:#333;stroke-width:1;"/>
   <line x1="245" y1="363" x2="106" y2="403" style="stroke:#333;stroke-width:1;"/>
   <line x1="247.5" y1="363" x2="251.03553390593" y2="366.53553390593" style="stroke:#333;stroke-width:2;"/>
   <line x1="247.5" y1="363" x2="251.03553390593" y2="359.46446609407" style="stroke:#333;stroke-width:2;"/>
   <line x1="101" y1="403" x2="104.53553390593" y2="406.53553390593" style="stroke:#333;stroke-width:2;"/>
   <line x1="101" y1="403" x2="104.53553390593" y2="399.46446609407" style="stroke:#333;stroke-width:2;"/>
   <line x1="584" y1="43" x2="574" y2="43" style="stroke:#333;stroke-width:1;"/>
   <line x1="106" y1="403" x2="96" y2="403" style="stroke:#333;stroke-width:1;"/>
   <line x1="574" y1="43" x2="106" y2="403" style="stroke:#333;stroke-width:1;"/>
   <line x1="576.5" y1="43" x2="580.03553390593" y2="46.535533905933" style="stroke:#333;stroke-width:2;"/>
   <line x1="576.5" y1="43" x2="580.03553390593" y2="39.464466094067" style="stroke:#333;stroke-width:2;"/>
   <line x1="101" y1="403" x2="104.53553390593" y2="406.53553390593" style="stroke:#333;stroke-width:2;"/>
   <line x1="101" y1="403" x2="104.53553390593" y2="399.46446609407" style="stroke:#333;stroke-width:2;"/>
   <line x1="749" y1="40" x2="739" y2="40" style="stroke:#333;stroke-width:1;"/>
   <line x1="106" y1="403" x2="96" y2="403" style="stroke:#333;stroke-width:1;"/>
   <line x1="739" y1="40" x2="106" y2="403" style="stroke:#333;stroke-width:1;"/>
   <line x1="741.5" y1="40" x2="745.03553390593" y2="43.535533905933" style="stroke:#333;stroke-width:2;"/>
   <line x1="741.5" y1="40" x2="745.03553390593" y2="36.464466094067" style="stroke:#333;stroke-width:2;"/>
   <line x1="101" y1="403" x2="104.53553390593" y2="406.53553390593" style="stroke:#333;stroke-width:2;"/>
   <line x1="101" y1="403" x2="104.53553390593" y2="399.46446609407" style="stroke:#333;stroke-width:2;"/>
   <line x1="585" y1="215" x2="575" y2="215" style="stroke:#333;stroke-width:1;"/>
   <line x1="106" y1="403" x2="96" y2="403" style="stroke:#333;stroke-width:1;"/>
   <line x1="575" y1="215" x2="106" y2="403" style="stroke:#333;stroke-width:1;"/>
   <line x1="577.5" y1="215" x2="581.03553390593" y2="218.53553390593" style="stroke:#333;stroke-width:2;"/>
   <line x1="577.5" y1="215" x2="581.03553390593" y2="211.46446609407" style="stroke:#333;stroke-width:2;"/>
   <line x1="101" y1="403" x2="104.53553390593" y2="406.53553390593" style="stroke:#333;stroke-width:2;"/>
   <line x1="101" y1="403" x2="104.53553390593" y2="399.46446609407" style="stroke:#333;stroke-width:2;"/>
   <line x1="292" y1="566" x2="282" y2="566" style="stroke:#333;stroke-width:1;"/>
   <line x1="106" y1="403" x2="96" y2="403" style="stroke:#333;stroke-width:1;"/>
   <line x1="282" y1="566" x2="106" y2="403" style="stroke:#333;stroke-width:1;"/>
   <line x1="284.5" y1="566" x2="288.03553390593" y2="569.53553390593" style="stroke:#333;stroke-width:2;"/>
   <line x1="284.5" y1="566" x2="288.03553390593" y2="562.46446609407" style="stroke:#333;stroke-width:2;"/>
   <line x1="101" y1="403" x2="104.53553390593" y2="406.53553390593" style="stroke:#333;stroke-width:2;"/>
   <line x1="101" y1="403" x2="104.53553390593" y2="399.46446609407" style="stroke:#333;stroke-width:2;"/>
   <line x1="416" y1="45" x2="406" y2="45" style="stroke:#333;stroke-width:1;"/>
   <line x1="106" y1="403" x2="96" y2="403" style="stroke:#333;stroke-width:1;"/>
   <line x1="406" y1="45" x2="106" y2="403" style="stroke:#333;stroke-width:1;"/>
   <line x1="408.5" y1="45" x2="412.03553390593" y2="48.535533905933" style="stroke:#333;stroke-width:2;"/>
   <line x1="408.5" y1="45" x2="412.03553390593" y2="41.464466094067" style="stroke:#333;stroke-width:2;"/>
   <line x1="101" y1="403" x2="104.53553390593" y2="406.53553390593" style="stroke:#333;stroke-width:2;"/>
   <line x1="101" y1="403" x2="104.53553390593" y2="399.46446609407" style="stroke:#333;stroke-width:2;"/>
   <line x1="748" y1="217" x2="738" y2="217" style="stroke:#333;stroke-width:1;"/>
   <line x1="106" y1="403" x2="96" y2="403" style="stroke:#333;stroke-width:1;"/>
   <line x1="738" y1="217" x2="106" y2="403" style="stroke:#333;stroke-width:1;"/>
   <line x1="740.5" y1="217" x2="744.03553390593" y2="220.53553390593" style="stroke:#333;stroke-width:2;"/>
   <line x1="740.5" y1="217" x2="744.03553390593" y2="213.46446609407" style="stroke:#333;stroke-width:2;"/>
   <line x1="101" y1="403" x2="104.53553390593" y2="406.53553390593" style="stroke:#333;stroke-width:2;"/>
   <line x1="101" y1="403" x2="104.53553390593" y2="399.46446609407" style="stroke:#333;stroke-width:2;"/>
   <line x1="750" y1="374" x2="740" y2="374" style="stroke:#333;stroke-width:1;"/>
   <line x1="106" y1="403" x2="96" y2="403" style="stroke:#333;stroke-width:1;"/>
   <line x1="740" y1="374" x2="106" y2="403" style="stroke:#333;stroke-width:1;"/>
   <line x1="742.5" y1="374" x2="746.03553390593" y2="377.53553390593" style="stroke:#333;stroke-width:2;"/>
   <line x1="742.5" y1="374" x2="746.03553390593" y2="370.46446609407" style="stroke:#333;stroke-width:2;"/>
   <line x1="101" y1="403" x2="104.53553390593" y2="406.53553390593" style="stroke:#333;stroke-width:2;"/>
   <line x1="101" y1="403" x2="104.53553390593" y2="399.46446609407" style="stroke:#333;stroke-width:2;"/>
   <line x1="678" y1="565" x2="668" y2="565" style="stroke:#333;stroke-width:1;"/>
   <line x1="106" y1="403" x2="96" y2="403" style="stroke:#333;stroke-width:1;"/>
   <line x1="668" y1="565" x2="106" y2="403" style="stroke:#333;stroke-width:1;"/>
   <line x1="670.5" y1="565" x2="674.03553390593" y2="568.53553390593" style="stroke:#333;stroke-width:2;"/>
   <line x1="670.5" y1="565" x2="674.03553390593" y2="561.46446609407" style="stroke:#333;stroke-width:2;"/>
   <line x1="101" y1="403" x2="104.53553390593" y2="406.53553390593" style="stroke:#333;stroke-width:2;"/>
   <line x1="101" y1="403" x2="104.53553390593" y2="399.46446609407" style="stroke:#333;stroke-width:2;"/>
   <line x1="249" y1="209" x2="239" y2="209" style="stroke:#333;stroke-width:1;"/>
   <line x1="106" y1="403" x2="96" y2="403" style="stroke:#333;stroke-width:1;"/>
   <line x1="239" y1="209" x2="106" y2="403" style="stroke:#333;stroke-width:1;"/>
   <line x1="241.5" y1="209" x2="245.03553390593" y2="212.53553390593" style="stroke:#333;stroke-width:2;"/>
   <line x1="241.5" y1="209" x2="245.03553390593" y2="205.46446609407" style="stroke:#333;stroke-width:2;"/>
   <line x1="101" y1="403" x2="104.53553390593" y2="406.53553390593" style="stroke:#333;stroke-width:2;"/>
   <line x1="101" y1="403" x2="104.53553390593" y2="399.46446609407" style="stroke:#333;stroke-width:2;"/>
   <line x1="421" y1="366" x2="411" y2="366" style="stroke:#333;stroke-width:1;"/>
   <line x1="106" y1="403" x2="96" y2="403" style="stroke:#333;stroke-width:1;"/>
   <line x1="411" y1="366" x2="106" y2="403" style="stroke:#333;stroke-width:1;"/>
   <line x1="413.5" y1="366" x2="417.03553390593" y2="369.53553390593" style="stroke:#333;stroke-width:2;"/>
   <line x1="413.5" y1="366" x2="417.03553390593" y2="362.46446609407" style="stroke:#333;stroke-width:2;"/>
   <line x1="101" y1="403" x2="104.53553390593" y2="406.53553390593" style="stroke:#333;stroke-width:2;"/>
   <line x1="101" y1="403" x2="104.53553390593" y2="399.46446609407" style="stroke:#333;stroke-width:2;"/>
   <line x1="250" y1="44" x2="240" y2="44" style="stroke:#333;stroke-width:1;"/>
   <line x1="106" y1="403" x2="96" y2="403" style="stroke:#333;stroke-width:1;"/>
   <line x1="240" y1="44" x2="106" y2="403" style="stroke:#333;stroke-width:1;"/>
   <line x1="242.5" y1="44" x2="246.03553390593" y2="47.535533905933" style="stroke:#333;stroke-width:2;"/>
   <line x1="242.5" y1="44" x2="246.03553390593" y2="40.464466094067" style="stroke:#333;stroke-width:2;"/>
   <line x1="101" y1="403" x2="104.53553390593" y2="406.53553390593" style="stroke:#333;stroke-width:2;"/>
   <line x1="101" y1="403" x2="104.53553390593" y2="399.46446609407" style="stroke:#333;stroke-width:2;"/>
   <line x1="118" y1="582" x2="108" y2="582" style="stroke:#333;stroke-width:1;"/>
   <line x1="106" y1="403" x2="96" y2="403" style="stroke:#333;stroke-width:1;"/>
   <line x1="108" y1="582" x2="106" y2="403" style="stroke:#333;stroke-width:1;"/>
   <line x1="110.5" y1="582" x2="114.03553390593" y2="585.53553390593" style="stroke:#333;stroke-width:2;"/>
   <line x1="110.5" y1="582" x2="114.03553390593" y2="578.46446609407" style="stroke:#333;stroke-width:2;"/>
   <line x1="101" y1="403" x2="104.53553390593" y2="406.53553390593" style="stroke:#333;stroke-width:2;"/>
   <line x1="101" y1="403" x2="104.53553390593" y2="399.46446609407" style="stroke:#333;stroke-width:2;"/>
   <line x1="422" y1="210" x2="412" y2="210" style="stroke:#333;stroke-width:1;"/>
   <line x1="106" y1="403" x2="96" y2="403" style="stroke:#333;stroke-width:1;"/>
   <line x1="412" y1="210" x2="106" y2="403" style="stroke:#333;stroke-width:1;"/>
   <line x1="414.5" y1="210" x2="418.03553390593" y2="213.53553390593" style="stroke:#333;stroke-width:2;"/>
   <line x1="414.5" y1="210" x2="418.03553390593" y2="206.46446609407" style="stroke:#333;stroke-width:2;"/>
   <line x1="101" y1="403" x2="104.53553390593" y2="406.53553390593" style="stroke:#333;stroke-width:2;"/>
   <line x1="101" y1="403" x2="104.53553390593" y2="399.46446609407" style="stroke:#333;stroke-width:2;"/>
   <rect width="59" height="20" x="255" y="333" style="fill:#007;stroke:black;"/>
   <text width="59" height="20" x="260" y="347" style="fill:#fff;" font-family="Arial" font-size="16px"> cooler</text>
   <rect width="59" height="20" x="255" y="353" style="fill:none;stroke:black;"/>
   <text width="59" height="20" x="260" y="367" style="fill:black;" font-family="Arial" font-size="16px">id</text>
   <rect width="59" height="20" x="255" y="373" style="fill:none;stroke:black;"/>
   <text width="59" height="20" x="260" y="387" style="fill:black;" font-family="Arial" font-size="16px">title</text>
   <rect width="59" height="20" x="255" y="393" style="fill:none;stroke:black;"/>
   <text width="59" height="20" x="260" y="407" style="fill:black;" font-family="Arial" font-size="16px">vendor</text>
   <rect width="59" height="20" x="255" y="413" style="fill:none;stroke:black;"/>
   <text width="59" height="20" x="260" y="427" style="fill:black;" font-family="Arial" font-size="16px">price</text>
   <rect width="59" height="20" x="255" y="433" style="fill:none;stroke:black;"/>
   <text width="59" height="20" x="260" y="447" style="fill:black;" font-family="Arial" font-size="16px">genre</text>
   <rect width="59" height="20" x="584" y="13" style="fill:#007;stroke:black;"/>
   <text width="59" height="20" x="589" y="27" style="fill:#fff;" font-family="Arial" font-size="16px"> corp</text>
   <rect width="59" height="20" x="584" y="33" style="fill:none;stroke:black;"/>
   <text width="59" height="20" x="589" y="47" style="fill:black;" font-family="Arial" font-size="16px">id</text>
   <rect width="59" height="20" x="584" y="53" style="fill:none;stroke:black;"/>
   <text width="59" height="20" x="589" y="67" style="fill:black;" font-family="Arial" font-size="16px">title</text>
   <rect width="59" height="20" x="584" y="73" style="fill:none;stroke:black;"/>
   <text width="59" height="20" x="589" y="87" style="fill:black;" font-family="Arial" font-size="16px">vendor</text>
   <rect width="59" height="20" x="584" y="93" style="fill:none;stroke:black;"/>
   <text width="59" height="20" x="589" y="107" style="fill:black;" font-family="Arial" font-size="16px">price</text>
   <rect width="59" height="20" x="584" y="113" style="fill:none;stroke:black;"/>
   <text width="59" height="20" x="589" y="127" style="fill:black;" font-family="Arial" font-size="16px">genre</text>
   <rect width="59" height="20" x="586" y="342" style="fill:#007;stroke:black;"/>
   <text width="59" height="20" x="591" y="356" style="fill:#fff;" font-family="Arial" font-size="16px"> cpu</text>
   <rect width="59" height="20" x="586" y="362" style="fill:none;stroke:black;"/>
   <text width="59" height="20" x="591" y="376" style="fill:black;" font-family="Arial" font-size="16px">id</text>
   <rect width="59" height="20" x="586" y="382" style="fill:none;stroke:black;"/>
   <text width="59" height="20" x="591" y="396" style="fill:black;" font-family="Arial" font-size="16px">title</text>
   <rect width="59" height="20" x="586" y="402" style="fill:none;stroke:black;"/>
   <text width="59" height="20" x="591" y="416" style="fill:black;" font-family="Arial" font-size="16px">vendor</text>
   <rect width="59" height="20" x="586" y="422" style="fill:none;stroke:black;"/>
   <text width="59" height="20" x="591" y="436" style="fill:black;" font-family="Arial" font-size="16px">price</text>
   <rect width="59" height="20" x="586" y="442" style="fill:none;stroke:black;"/>
   <text width="59" height="20" x="591" y="456" style="fill:black;" font-family="Arial" font-size="16px">genre</text>
   <rect width="85" height="20" x="45" y="130" style="fill:#007;stroke:black;"/>
   <text width="85" height="20" x="50" y="144" style="fill:#fff;" font-family="Arial" font-size="16px"> customers</text>
   <rect width="85" height="20" x="45" y="150" style="fill:none;stroke:black;"/>
   <text width="85" height="20" x="50" y="164" style="fill:black;" font-family="Arial" font-size="16px">id</text>
   <rect width="85" height="20" x="45" y="170" style="fill:none;stroke:black;"/>
   <text width="85" height="20" x="50" y="184" style="fill:black;" font-family="Arial" font-size="16px">name</text>
   <rect width="85" height="20" x="45" y="190" style="fill:none;stroke:black;"/>
   <text width="85" height="20" x="50" y="204" style="fill:black;" font-family="Arial" font-size="16px">age</text>
   <rect width="85" height="20" x="45" y="16" style="fill:#007;stroke:black;"/>
   <text width="85" height="20" x="50" y="30" style="fill:#fff;" font-family="Arial" font-size="16px"> employees</text>
   <rect width="85" height="20" x="45" y="36" style="fill:none;stroke:black;"/>
   <text width="85" height="20" x="50" y="50" style="fill:black;" font-family="Arial" font-size="16px">id</text>
   <rect width="85" height="20" x="45" y="56" style="fill:none;stroke:black;"/>
   <text width="85" height="20" x="50" y="70" style="fill:black;" font-family="Arial" font-size="16px">name</text>
   <rect width="85" height="20" x="45" y="76" style="fill:none;stroke:black;"/>
   <text width="85" height="20" x="50" y="90" style="fill:black;" font-family="Arial" font-size="16px">age</text>
   <rect width="50" height="20" x="46" y="373" style="fill:#007;stroke:black;"/>
   <text width="50" height="20" x="51" y="387" style="fill:#fff;" font-family="Arial" font-size="16px"> genre</text>
   <rect width="50" height="20" x="46" y="393" style="fill:none;stroke:black;"/>
   <text width="50" height="20" x="51" y="407" style="fill:black;" font-family="Arial" font-size="16px">id</text>
   <rect width="50" height="20" x="46" y="413" style="fill:none;stroke:black;"/>
   <text width="50" height="20" x="51" y="427" style="fill:black;" font-family="Arial" font-size="16px">name</text>
   <rect width="50" height="20" x="46" y="433" style="fill:none;stroke:black;"/>
   <text width="50" height="20" x="51" y="447" style="fill:black;" font-family="Arial" font-size="16px">code</text>
   <rect width="59" height="20" x="749" y="10" style="fill:#007;stroke:black;"/>
   <text width="59" height="20" x="754" y="24" style="fill:#fff;" font-family="Arial" font-size="16px"> hdd</text>
   <rect width="59" height="20" x="749" y="30" style="fill:none;stroke:black;"/>
   <text width="59" height="20" x="754" y="44" style="fill:black;" font-family="Arial" font-size="16px">id</text>
   <rect width="59" height="20" x="749" y="50" style="fill:none;stroke:black;"/>
   <text width="59" height="20" x="754" y="64" style="fill:black;" font-family="Arial" font-size="16px">title</text>
   <rect width="59" height="20" x="749" y="70" style="fill:none;stroke:black;"/>
   <text width="59" height="20" x="754" y="84" style="fill:black;" font-family="Arial" font-size="16px">vendor</text>
   <rect width="59" height="20" x="749" y="90" style="fill:none;stroke:black;"/>
   <text width="59" height="20" x="754" y="104" style="fill:black;" font-family="Arial" font-size="16px">price</text>
   <rect width="59" height="20" x="749" y="110" style="fill:none;stroke:black;"/>
   <text width="59" height="20" x="754" y="124" style="fill:black;" font-family="Arial" font-size="16px">genre</text>
   <rect width="73" height="20" x="585" y="185" style="fill:#007;stroke:black;"/>
   <text width="73" height="20" x="590" y="199" style="fill:#fff;" font-family="Arial" font-size="16px"> keyboard</text>
   <rect width="73" height="20" x="585" y="205" style="fill:none;stroke:black;"/>
   <text width="73" height="20" x="590" y="219" style="fill:black;" font-family="Arial" font-size="16px">id</text>
   <rect width="73" height="20" x="585" y="225" style="fill:none;stroke:black;"/>
   <text width="73" height="20" x="590" y="239" style="fill:black;" font-family="Arial" font-size="16px">title</text>
   <rect width="73" height="20" x="585" y="245" style="fill:none;stroke:black;"/>
   <text width="73" height="20" x="590" y="259" style="fill:black;" font-family="Arial" font-size="16px">vendor</text>
   <rect width="73" height="20" x="585" y="265" style="fill:none;stroke:black;"/>
   <text width="73" height="20" x="590" y="279" style="fill:black;" font-family="Arial" font-size="16px">price</text>
   <rect width="73" height="20" x="585" y="285" style="fill:none;stroke:black;"/>
   <text width="73" height="20" x="590" y="299" style="fill:black;" font-family="Arial" font-size="16px">genre</text>
   <rect width="101" height="20" x="292" y="536" style="fill:#007;stroke:black;"/>
   <text width="101" height="20" x="297" y="550" style="fill:#fff;" font-family="Arial" font-size="16px"> memorycard</text>
   <rect width="101" height="20" x="292" y="556" style="fill:none;stroke:black;"/>
   <text width="101" height="20" x="297" y="570" style="fill:black;" font-family="Arial" font-size="16px">id</text>
   <rect width="101" height="20" x="292" y="576" style="fill:none;stroke:black;"/>
   <text width="101" height="20" x="297" y="590" style="fill:black;" font-family="Arial" font-size="16px">title</text>
   <rect width="101" height="20" x="292" y="596" style="fill:none;stroke:black;"/>
   <text width="101" height="20" x="297" y="610" style="fill:black;" font-family="Arial" font-size="16px">vendor</text>
   <rect width="101" height="20" x="292" y="616" style="fill:none;stroke:black;"/>
   <text width="101" height="20" x="297" y="630" style="fill:black;" font-family="Arial" font-size="16px">price</text>
   <rect width="101" height="20" x="292" y="636" style="fill:none;stroke:black;"/>
   <text width="101" height="20" x="297" y="650" style="fill:black;" font-family="Arial" font-size="16px">genre</text>
   <rect width="101" height="20" x="416" y="15" style="fill:#007;stroke:black;"/>
   <text width="101" height="20" x="421" y="29" style="fill:#fff;" font-family="Arial" font-size="16px"> motherboard</text>
   <rect width="101" height="20" x="416" y="35" style="fill:none;stroke:black;"/>
   <text width="101" height="20" x="421" y="49" style="fill:black;" font-family="Arial" font-size="16px">id</text>
   <rect width="101" height="20" x="416" y="55" style="fill:none;stroke:black;"/>
   <text width="101" height="20" x="421" y="69" style="fill:black;" font-family="Arial" font-size="16px">title</text>
   <rect width="101" height="20" x="416" y="75" style="fill:none;stroke:black;"/>
   <text width="101" height="20" x="421" y="89" style="fill:black;" font-family="Arial" font-size="16px">vendor</text>
   <rect width="101" height="20" x="416" y="95" style="fill:none;stroke:black;"/>
   <text width="101" height="20" x="421" y="109" style="fill:black;" font-family="Arial" font-size="16px">price</text>
   <rect width="101" height="20" x="416" y="115" style="fill:none;stroke:black;"/>
   <text width="101" height="20" x="421" y="129" style="fill:black;" font-family="Arial" font-size="16px">genre</text>
   <rect width="59" height="20" x="748" y="187" style="fill:#007;stroke:black;"/>
   <text width="59" height="20" x="753" y="201" style="fill:#fff;" font-family="Arial" font-size="16px"> mouse</text>
   <rect width="59" height="20" x="748" y="207" style="fill:none;stroke:black;"/>
   <text width="59" height="20" x="753" y="221" style="fill:black;" font-family="Arial" font-size="16px">id</text>
   <rect width="59" height="20" x="748" y="227" style="fill:none;stroke:black;"/>
   <text width="59" height="20" x="753" y="241" style="fill:black;" font-family="Arial" font-size="16px">title</text>
   <rect width="59" height="20" x="748" y="247" style="fill:none;stroke:black;"/>
   <text width="59" height="20" x="753" y="261" style="fill:black;" font-family="Arial" font-size="16px">vendor</text>
   <rect width="59" height="20" x="748" y="267" style="fill:none;stroke:black;"/>
   <text width="59" height="20" x="753" y="281" style="fill:black;" font-family="Arial" font-size="16px">price</text>
   <rect width="59" height="20" x="748" y="287" style="fill:none;stroke:black;"/>
   <text width="59" height="20" x="753" y="301" style="fill:black;" font-family="Arial" font-size="16px">genre</text>
   <rect width="122" height="20" x="750" y="344" style="fill:#007;stroke:black;"/>
   <text width="122" height="20" x="755" y="358" style="fill:#fff;" font-family="Arial" font-size="16px"> networkadapter</text>
   <rect width="122" height="20" x="750" y="364" style="fill:none;stroke:black;"/>
   <text width="122" height="20" x="755" y="378" style="fill:black;" font-family="Arial" font-size="16px">id</text>
   <rect width="122" height="20" x="750" y="384" style="fill:none;stroke:black;"/>
   <text width="122" height="20" x="755" y="398" style="fill:black;" font-family="Arial" font-size="16px">title</text>
   <rect width="122" height="20" x="750" y="404" style="fill:none;stroke:black;"/>
   <text width="122" height="20" x="755" y="418" style="fill:black;" font-family="Arial" font-size="16px">vendor</text>
   <rect width="122" height="20" x="750" y="424" style="fill:none;stroke:black;"/>
   <text width="122" height="20" x="755" y="438" style="fill:black;" font-family="Arial" font-size="16px">price</text>
   <rect width="122" height="20" x="750" y="444" style="fill:none;stroke:black;"/>
   <text width="122" height="20" x="755" y="458" style="fill:black;" font-family="Arial" font-size="16px">genre</text>
   <rect width="108" height="20" x="678" y="535" style="fill:#007;stroke:black;"/>
   <text width="108" height="20" x="683" y="549" style="fill:#fff;" font-family="Arial" font-size="16px"> opticalstorage</text>
   <rect width="108" height="20" x="678" y="555" style="fill:none;stroke:black;"/>
   <text width="108" height="20" x="683" y="569" style="fill:black;" font-family="Arial" font-size="16px">id</text>
   <rect width="108" height="20" x="678" y="575" style="fill:none;stroke:black;"/>
   <text width="108" height="20" x="683" y="589" style="fill:black;" font-family="Arial" font-size="16px">title</text>
   <rect width="108" height="20" x="678" y="595" style="fill:none;stroke:black;"/>
   <text width="108" height="20" x="683" y="609" style="fill:black;" font-family="Arial" font-size="16px">vendor</text>
   <rect width="108" height="20" x="678" y="615" style="fill:none;stroke:black;"/>
   <text width="108" height="20" x="683" y="629" style="fill:black;" font-family="Arial" font-size="16px">price</text>
   <rect width="108" height="20" x="678" y="635" style="fill:none;stroke:black;"/>
   <text width="108" height="20" x="683" y="649" style="fill:black;" font-family="Arial" font-size="16px">genre</text>
   <rect width="120" height="20" x="31" y="235" style="fill:#007;stroke:black;"/>
   <text width="120" height="20" x="36" y="249" style="fill:#fff;" font-family="Arial" font-size="16px"> orders</text>
   <rect width="120" height="20" x="31" y="255" style="fill:none;stroke:black;"/>
   <text width="120" height="20" x="36" y="269" style="fill:black;" font-family="Arial" font-size="16px">id</text>
   <rect width="120" height="20" x="31" y="275" style="fill:none;stroke:black;"/>
   <text width="120" height="20" x="36" y="289" style="fill:black;" font-family="Arial" font-size="16px">customername</text>
   <rect width="120" height="20" x="31" y="295" style="fill:none;stroke:black;"/>
   <text width="120" height="20" x="36" y="309" style="fill:black;" font-family="Arial" font-size="16px">employeename</text>
   <rect width="120" height="20" x="31" y="315" style="fill:none;stroke:black;"/>
   <text width="120" height="20" x="36" y="329" style="fill:black;" font-family="Arial" font-size="16px">goods</text>
   <rect width="101" height="20" x="249" y="179" style="fill:#007;stroke:black;"/>
   <text width="101" height="20" x="254" y="193" style="fill:#fff;" font-family="Arial" font-size="16px"> powersupply</text>
   <rect width="101" height="20" x="249" y="199" style="fill:none;stroke:black;"/>
   <text width="101" height="20" x="254" y="213" style="fill:black;" font-family="Arial" font-size="16px">id</text>
   <rect width="101" height="20" x="249" y="219" style="fill:none;stroke:black;"/>
   <text width="101" height="20" x="254" y="233" style="fill:black;" font-family="Arial" font-size="16px">title</text>
   <rect width="101" height="20" x="249" y="239" style="fill:none;stroke:black;"/>
   <text width="101" height="20" x="254" y="253" style="fill:black;" font-family="Arial" font-size="16px">vendor</text>
   <rect width="101" height="20" x="249" y="259" style="fill:none;stroke:black;"/>
   <text width="101" height="20" x="254" y="273" style="fill:black;" font-family="Arial" font-size="16px">price</text>
   <rect width="101" height="20" x="249" y="279" style="fill:none;stroke:black;"/>
   <text width="101" height="20" x="254" y="293" style="fill:black;" font-family="Arial" font-size="16px">genre</text>
   <rect width="59" height="20" x="421" y="336" style="fill:#007;stroke:black;"/>
   <text width="59" height="20" x="426" y="350" style="fill:#fff;" font-family="Arial" font-size="16px"> ram</text>
   <rect width="59" height="20" x="421" y="356" style="fill:none;stroke:black;"/>
   <text width="59" height="20" x="426" y="370" style="fill:black;" font-family="Arial" font-size="16px">id</text>
   <rect width="59" height="20" x="421" y="376" style="fill:none;stroke:black;"/>
   <text width="59" height="20" x="426" y="390" style="fill:black;" font-family="Arial" font-size="16px">title</text>
   <rect width="59" height="20" x="421" y="396" style="fill:none;stroke:black;"/>
   <text width="59" height="20" x="426" y="410" style="fill:black;" font-family="Arial" font-size="16px">vendor</text>
   <rect width="59" height="20" x="421" y="416" style="fill:none;stroke:black;"/>
   <text width="59" height="20" x="426" y="430" style="fill:black;" font-family="Arial" font-size="16px">price</text>
   <rect width="59" height="20" x="421" y="436" style="fill:none;stroke:black;"/>
   <text width="59" height="20" x="426" y="450" style="fill:black;" font-family="Arial" font-size="16px">genre</text>
   <rect width="80" height="20" x="250" y="14" style="fill:#007;stroke:black;"/>
   <text width="80" height="20" x="255" y="28" style="fill:#fff;" font-family="Arial" font-size="16px"> soundcard</text>
   <rect width="80" height="20" x="250" y="34" style="fill:none;stroke:black;"/>
   <text width="80" height="20" x="255" y="48" style="fill:black;" font-family="Arial" font-size="16px">id</text>
   <rect width="80" height="20" x="250" y="54" style="fill:none;stroke:black;"/>
   <text width="80" height="20" x="255" y="68" style="fill:black;" font-family="Arial" font-size="16px">title</text>
   <rect width="80" height="20" x="250" y="74" style="fill:none;stroke:black;"/>
   <text width="80" height="20" x="255" y="88" style="fill:black;" font-family="Arial" font-size="16px">vendor</text>
   <rect width="80" height="20" x="250" y="94" style="fill:none;stroke:black;"/>
   <text width="80" height="20" x="255" y="108" style="fill:black;" font-family="Arial" font-size="16px">price</text>
   <rect width="80" height="20" x="250" y="114" style="fill:none;stroke:black;"/>
   <text width="80" height="20" x="255" y="128" style="fill:black;" font-family="Arial" font-size="16px">genre</text>
   <rect width="59" height="20" x="118" y="552" style="fill:#007;stroke:black;"/>
   <text width="59" height="20" x="123" y="566" style="fill:#fff;" font-family="Arial" font-size="16px"> tvtuner</text>
   <rect width="59" height="20" x="118" y="572" style="fill:none;stroke:black;"/>
   <text width="59" height="20" x="123" y="586" style="fill:black;" font-family="Arial" font-size="16px">id</text>
   <rect width="59" height="20" x="118" y="592" style="fill:none;stroke:black;"/>
   <text width="59" height="20" x="123" y="606" style="fill:black;" font-family="Arial" font-size="16px">title</text>
   <rect width="59" height="20" x="118" y="612" style="fill:none;stroke:black;"/>
   <text width="59" height="20" x="123" y="626" style="fill:black;" font-family="Arial" font-size="16px">vendor</text>
   <rect width="59" height="20" x="118" y="632" style="fill:none;stroke:black;"/>
   <text width="59" height="20" x="123" y="646" style="fill:black;" font-family="Arial" font-size="16px">price</text>
   <rect width="59" height="20" x="118" y="652" style="fill:none;stroke:black;"/>
   <text width="59" height="20" x="123" y="666" style="fill:black;" font-family="Arial" font-size="16px">genre</text>
   <rect width="66" height="20" x="422" y="180" style="fill:#007;stroke:black;"/>
   <text width="66" height="20" x="427" y="194" style="fill:#fff;" font-family="Arial" font-size="16px"> usbflash</text>
   <rect width="66" height="20" x="422" y="200" style="fill:none;stroke:black;"/>
   <text width="66" height="20" x="427" y="214" style="fill:black;" font-family="Arial" font-size="16px">id</text>
   <rect width="66" height="20" x="422" y="220" style="fill:none;stroke:black;"/>
   <text width="66" height="20" x="427" y="234" style="fill:black;" font-family="Arial" font-size="16px">title</text>
   <rect width="66" height="20" x="422" y="240" style="fill:none;stroke:black;"/>
   <text width="66" height="20" x="427" y="254" style="fill:black;" font-family="Arial" font-size="16px">vendor</text>
   <rect width="66" height="20" x="422" y="260" style="fill:none;stroke:black;"/>
   <text width="66" height="20" x="427" y="274" style="fill:black;" font-family="Arial" font-size="16px">price</text>
   <rect width="66" height="20" x="422" y="280" style="fill:none;stroke:black;"/>
   <text width="66" height="20" x="427" y="294" style="fill:black;" font-family="Arial" font-size="16px">genre</text>
   <rect width="80" height="20" x="476" y="533" style="fill:#007;stroke:black;"/>
   <text width="80" height="20" x="481" y="547" style="fill:#fff;" font-family="Arial" font-size="16px"> videocard</text>
   <rect width="80" height="20" x="476" y="553" style="fill:none;stroke:black;"/>
   <text width="80" height="20" x="481" y="567" style="fill:black;" font-family="Arial" font-size="16px">id</text>
   <rect width="80" height="20" x="476" y="573" style="fill:none;stroke:black;"/>
   <text width="80" height="20" x="481" y="587" style="fill:black;" font-family="Arial" font-size="16px">title</text>
   <rect width="80" height="20" x="476" y="593" style="fill:none;stroke:black;"/>
   <text width="80" height="20" x="481" y="607" style="fill:black;" font-family="Arial" font-size="16px">vendor</text>
   <rect width="80" height="20" x="476" y="613" style="fill:none;stroke:black;"/>
   <text width="80" height="20" x="481" y="627" style="fill:black;" font-family="Arial" font-size="16px">price</text>
   <rect width="80" height="20" x="476" y="633" style="fill:none;stroke:black;"/>
   <text width="80" height="20" x="481" y="647" style="fill:black;" font-family="Arial" font-size="16px">genre</text>
</svg>
